<?xml version="1.0" encoding="UTF-8" standalone="no"?>
<!-- Created with Inkscape (http://www.inkscape.org/) -->

<svg
   xmlns:dc="http://purl.org/dc/elements/1.1/"
   xmlns:cc="http://creativecommons.org/ns#"
   xmlns:rdf="http://www.w3.org/1999/02/22-rdf-syntax-ns#"
   xmlns:svg="http://www.w3.org/2000/svg"
   xmlns="http://www.w3.org/2000/svg"
   xmlns:sodipodi="http://sodipodi.sourceforge.net/DTD/sodipodi-0.dtd"
   xmlns:inkscape="http://www.inkscape.org/namespaces/inkscape"
   width="744.09448819"
   height="1052.3622047"
   id="svg2"
   version="1.1"
   inkscape:version="0.48.2 r9819"
   sodipodi:docname="development_model.svg">
  <defs
     id="defs4" />
  <sodipodi:namedview
     id="base"
     pagecolor="#ffffff"
     bordercolor="#666666"
     borderopacity="1.0"
     inkscape:pageopacity="0.0"
     inkscape:pageshadow="2"
     inkscape:zoom="0.70710678"
     inkscape:cx="374.50005"
     inkscape:cy="533.9553"
     inkscape:document-units="px"
     inkscape:current-layer="g3796"
     showgrid="false"
     inkscape:window-width="1440"
     inkscape:window-height="846"
     inkscape:window-x="-1"
     inkscape:window-y="26"
     inkscape:window-maximized="1"
     showguides="true"
     inkscape:guide-bbox="true">
    <inkscape:grid
       type="xygrid"
       id="grid2985" />
  </sodipodi:namedview>
  <metadata
     id="metadata7">
    <rdf:RDF>
      <cc:Work
         rdf:about="">
        <dc:format>image/svg+xml</dc:format>
        <dc:type
           rdf:resource="http://purl.org/dc/dcmitype/StillImage" />
        <dc:title />
      </cc:Work>
    </rdf:RDF>
  </metadata>
  <g
     inkscape:label="Layer 1"
     inkscape:groupmode="layer"
     id="layer1">
    <path
       style="fill:#a43700;fill-opacity:0.54000005;stroke:#000000;stroke-width:1px;stroke-linecap:butt;stroke-linejoin:miter;stroke-opacity:1"
       d="m 60,992.36218 c 36.436289,-6.666 31.347816,-23.53725 112.16364,-17.68272 70.15435,5.08218 144.26493,-3.04141 147.83636,-42.31728 l 0,-389.89065 C 223.5681,475.90543 139.71182,433.31826 82.159631,405.63186 128.80854,425.73349 177.11822,433.67851 320,503.37448 l 0,-251.0123 c 0.30891,-48.2955 7.38107,-37.45129 31.0156,-89.9001 6.68122,-14.82669 14.68598,-34.71131 24.23566,-62.41968 C 354.0878,205.62349 360.46857,196.32739 360,232.36218 l 0,54.3495 C 420.6599,230.96822 468.42988,205.30123 516.38819,179.1948 422.83375,249.45098 375.41954,294.07369 360,320.92159 l 0,345.35725 C 453.99284,604.82581 538.50476,595.62579 612.50176,570.16527 526.91219,612.26126 437.60719,639.49557 360,713.52111 l 0,218.84107 c -0.30375,50.44138 180,40 260,60 -89.64463,-6.43819 -159.73604,-9.02764 -213.61603,-8.80979 C 392.10382,983.61013 340,956.64789 340,956.64789 c -11.85245,29.31756 -10.1316,28.00477 -30,25.71429 -54.03784,-6.22963 -162.02627,3.96642 -250,10 z"
       id="path2987"
       inkscape:connector-curvature="0"
       sodipodi:nodetypes="cscccccsccccccccccsssc" />
    <g
       id="g3796"
       transform="matrix(0.21076231,0,0,0.21076231,250.79991,684.51977)">
      <g
         id="g3803"
         transform="matrix(0.86900307,-0.4948067,0.4948067,0.86900307,-243.56516,216.212)">
        <path
           style="fill:#31c81a;fill-opacity:1;stroke:#007000;stroke-width:4;stroke-linecap:butt;stroke-linejoin:miter;stroke-miterlimit:4;stroke-opacity:1;stroke-dasharray:none"
           d="m 50.093092,639.36332 c -2.617134,14.39408 -4.53412,27.63571 -5.827693,39.8046 C 24.97125,860.67168 144.36756,803.52126 147.83571,772.16668 249.04484,749.53755 176.04576,671.69379 88.015085,646.56661 75.525466,643.00161 62.73327,640.49777 50.093092,639.36332 z"
           id="path3778"
           inkscape:connector-curvature="0"
           sodipodi:nodetypes="cscsc" />
        <path
           style="fill:#31611c;fill-opacity:1;stroke:none"
           d="M 188.96906,817.7799 C 121.01554,753.46731 77.349199,699.07387 49.685831,636.14154 105.5887,730.00974 148.15482,769.47434 196.29976,810.4492 z"
           id="path3776"
           inkscape:connector-curvature="0"
           sodipodi:nodetypes="cccc" />
        <path
           style="fill:none;stroke:#31611c;stroke-width:2;stroke-linecap:butt;stroke-linejoin:miter;stroke-miterlimit:4;stroke-opacity:1;stroke-dasharray:none"
           d="m 72.492441,769.31585 c 22.553273,1.67447 42.879919,-2.21763 61.089139,-11.4033 l 24.84291,-51.31488"
           id="path3788"
           inkscape:connector-curvature="0"
           sodipodi:nodetypes="ccc" />
        <path
           style="fill:none;stroke:#31611c;stroke-width:2;stroke-linecap:butt;stroke-linejoin:miter;stroke-miterlimit:4;stroke-opacity:1;stroke-dasharray:none"
           d="m 64.754484,726.96072 c 9.277029,5.0494 27.036942,-0.0807 41.133356,-0.81452 10.09698,-12.8672 18.98402,-29.26188 18.32674,-41.54061"
           id="path3792"
           inkscape:connector-curvature="0"
           sodipodi:nodetypes="ccc" />
        <path
           style="fill:none;stroke:#31611c;stroke-width:2;stroke-linecap:butt;stroke-linejoin:miter;stroke-miterlimit:4;stroke-opacity:1;stroke-dasharray:none"
           d="m 56.202005,685.01284 c 1.181827,2.55683 9.278099,2.59931 22.39935,0.81453 2.94697,-10.48357 7.453607,-21.90293 5.294392,-29.32279"
           id="path3794"
           inkscape:connector-curvature="0"
           sodipodi:nodetypes="ccc" />
      </g>
      <g
         id="g3803-6"
         transform="matrix(0.86900305,-0.49480669,0.49480669,0.86900305,-244.11624,-200.51639)">
        <path
           style="fill:#31c81a;fill-opacity:1;stroke:#007000;stroke-width:4;stroke-linecap:butt;stroke-linejoin:miter;stroke-miterlimit:4;stroke-opacity:1;stroke-dasharray:none"
           d="m 50.093092,639.36332 c -2.617134,14.39408 -4.53412,27.63571 -5.827693,39.8046 C 24.97125,860.67168 144.36756,803.52126 147.83571,772.16668 249.04484,749.53755 176.04576,671.69379 88.015085,646.56661 75.525466,643.00161 62.73327,640.49777 50.093092,639.36332 z"
           id="path3778-2"
           inkscape:connector-curvature="0"
           sodipodi:nodetypes="cscsc" />
        <path
           style="fill:#31611c;fill-opacity:1;stroke:none"
           d="M 188.96906,817.7799 C 121.01554,753.46731 77.349199,699.07387 49.685831,636.14154 105.5887,730.00974 148.15482,769.47434 196.29976,810.4492 z"
           id="path3776-3"
           inkscape:connector-curvature="0"
           sodipodi:nodetypes="cccc" />
        <path
           style="fill:none;stroke:#31611c;stroke-width:2;stroke-linecap:butt;stroke-linejoin:miter;stroke-miterlimit:4;stroke-opacity:1;stroke-dasharray:none"
           d="m 72.492441,769.31585 c 22.553273,1.67447 42.879919,-2.21763 61.089139,-11.4033 l 24.84291,-51.31488"
           id="path3788-9"
           inkscape:connector-curvature="0"
           sodipodi:nodetypes="ccc" />
        <path
           style="fill:none;stroke:#31611c;stroke-width:2;stroke-linecap:butt;stroke-linejoin:miter;stroke-miterlimit:4;stroke-opacity:1;stroke-dasharray:none"
           d="m 64.754484,726.96072 c 9.277029,5.0494 27.036942,-0.0807 41.133356,-0.81452 10.09698,-12.8672 18.98402,-29.26188 18.32674,-41.54061"
           id="path3792-7"
           inkscape:connector-curvature="0"
           sodipodi:nodetypes="ccc" />
        <path
           style="fill:none;stroke:#31611c;stroke-width:2;stroke-linecap:butt;stroke-linejoin:miter;stroke-miterlimit:4;stroke-opacity:1;stroke-dasharray:none"
           d="m 56.202005,685.01284 c 1.181827,2.55683 9.278099,2.59931 22.39935,0.81453 2.94697,-10.48357 7.453607,-21.90293 5.294392,-29.32279"
           id="path3794-5"
           inkscape:connector-curvature="0"
           sodipodi:nodetypes="ccc" />
      </g>
      <g
         id="g3803-2"
         transform="matrix(-0.86900305,-0.49480669,-0.49480669,0.86900305,1087.3,-28.539619)">
        <path
           style="fill:#31c81a;fill-opacity:1;stroke:#007000;stroke-width:4;stroke-linecap:butt;stroke-linejoin:miter;stroke-miterlimit:4;stroke-opacity:1;stroke-dasharray:none"
           d="m 50.093092,639.36332 c -2.617134,14.39408 -4.53412,27.63571 -5.827693,39.8046 C 24.97125,860.67168 144.36756,803.52126 147.83571,772.16668 249.04484,749.53755 176.04576,671.69379 88.015085,646.56661 75.525466,643.00161 62.73327,640.49777 50.093092,639.36332 z"
           id="path3778-8"
           inkscape:connector-curvature="0"
           sodipodi:nodetypes="cscsc" />
        <path
           style="fill:#31611c;fill-opacity:1;stroke:none"
           d="M 188.96906,817.7799 C 121.01554,753.46731 77.349199,699.07387 49.685831,636.14154 105.5887,730.00974 148.15482,769.47434 196.29976,810.4492 z"
           id="path3776-2"
           inkscape:connector-curvature="0"
           sodipodi:nodetypes="cccc" />
        <path
           style="fill:none;stroke:#31611c;stroke-width:2;stroke-linecap:butt;stroke-linejoin:miter;stroke-miterlimit:4;stroke-opacity:1;stroke-dasharray:none"
           d="m 72.492441,769.31585 c 22.553273,1.67447 42.879919,-2.21763 61.089139,-11.4033 l 24.84291,-51.31488"
           id="path3788-8"
           inkscape:connector-curvature="0"
           sodipodi:nodetypes="ccc" />
        <path
           style="fill:none;stroke:#31611c;stroke-width:2;stroke-linecap:butt;stroke-linejoin:miter;stroke-miterlimit:4;stroke-opacity:1;stroke-dasharray:none"
           d="m 64.754484,726.96072 c 9.277029,5.0494 27.036942,-0.0807 41.133356,-0.81452 10.09698,-12.8672 18.98402,-29.26188 18.32674,-41.54061"
           id="path3792-2"
           inkscape:connector-curvature="0"
           sodipodi:nodetypes="ccc" />
        <path
           style="fill:none;stroke:#31611c;stroke-width:2;stroke-linecap:butt;stroke-linejoin:miter;stroke-miterlimit:4;stroke-opacity:1;stroke-dasharray:none"
           d="m 56.202005,685.01284 c 1.181827,2.55683 9.278099,2.59931 22.39935,0.81453 2.94697,-10.48357 7.453607,-21.90293 5.294392,-29.32279"
           id="path3794-9"
           inkscape:connector-curvature="0"
           sodipodi:nodetypes="ccc" />
      </g>
      <g
         id="g3803-9"
         transform="matrix(0.86900305,-0.49480669,0.49480669,0.86900305,-244.57297,-804.45913)">
        <path
           style="fill:#31c81a;fill-opacity:1;stroke:#007000;stroke-width:4;stroke-linecap:butt;stroke-linejoin:miter;stroke-miterlimit:4;stroke-opacity:1;stroke-dasharray:none"
           d="m 50.093092,639.36332 c -2.617134,14.39408 -4.53412,27.63571 -5.827693,39.8046 C 24.97125,860.67168 144.36756,803.52126 147.83571,772.16668 249.04484,749.53755 176.04576,671.69379 88.015085,646.56661 75.525466,643.00161 62.73327,640.49777 50.093092,639.36332 z"
           id="path3778-84"
           inkscape:connector-curvature="0"
           sodipodi:nodetypes="cscsc" />
        <path
           style="fill:#31611c;fill-opacity:1;stroke:none"
           d="M 188.96906,817.7799 C 121.01554,753.46731 77.349199,699.07387 49.685831,636.14154 105.5887,730.00974 148.15482,769.47434 196.29976,810.4492 z"
           id="path3776-9"
           inkscape:connector-curvature="0"
           sodipodi:nodetypes="cccc" />
        <path
           style="fill:none;stroke:#31611c;stroke-width:2;stroke-linecap:butt;stroke-linejoin:miter;stroke-miterlimit:4;stroke-opacity:1;stroke-dasharray:none"
           d="m 72.492441,769.31585 c 22.553273,1.67447 42.879919,-2.21763 61.089139,-11.4033 l 24.84291,-51.31488"
           id="path3788-3"
           inkscape:connector-curvature="0"
           sodipodi:nodetypes="ccc" />
        <path
           style="fill:none;stroke:#31611c;stroke-width:2;stroke-linecap:butt;stroke-linejoin:miter;stroke-miterlimit:4;stroke-opacity:1;stroke-dasharray:none"
           d="m 64.754484,726.96072 c 9.277029,5.0494 27.036942,-0.0807 41.133356,-0.81452 10.09698,-12.8672 18.98402,-29.26188 18.32674,-41.54061"
           id="path3792-24"
           inkscape:connector-curvature="0"
           sodipodi:nodetypes="ccc" />
        <path
           style="fill:none;stroke:#31611c;stroke-width:2;stroke-linecap:butt;stroke-linejoin:miter;stroke-miterlimit:4;stroke-opacity:1;stroke-dasharray:none"
           d="m 56.202005,685.01284 c 1.181827,2.55683 9.278099,2.59931 22.39935,0.81453 2.94697,-10.48357 7.453607,-21.90293 5.294392,-29.32279"
           id="path3794-94"
           inkscape:connector-curvature="0"
           sodipodi:nodetypes="ccc" />
      </g>
      <g
         id="g3803-3"
         transform="matrix(0.86900305,-0.49480669,0.49480669,0.86900305,-242.18391,-1065.8148)">
        <path
           style="fill:#31c81a;fill-opacity:1;stroke:#007000;stroke-width:4;stroke-linecap:butt;stroke-linejoin:miter;stroke-miterlimit:4;stroke-opacity:1;stroke-dasharray:none"
           d="m 50.093092,639.36332 c -2.617134,14.39408 -4.53412,27.63571 -5.827693,39.8046 C 24.97125,860.67168 144.36756,803.52126 147.83571,772.16668 249.04484,749.53755 176.04576,671.69379 88.015085,646.56661 75.525466,643.00161 62.73327,640.49777 50.093092,639.36332 z"
           id="path3778-81"
           inkscape:connector-curvature="0"
           sodipodi:nodetypes="cscsc" />
        <path
           style="fill:#31611c;fill-opacity:1;stroke:none"
           d="M 188.96906,817.7799 C 121.01554,753.46731 77.349199,699.07387 49.685831,636.14154 105.5887,730.00974 148.15482,769.47434 196.29976,810.4492 z"
           id="path3776-34"
           inkscape:connector-curvature="0"
           sodipodi:nodetypes="cccc" />
        <path
           style="fill:none;stroke:#31611c;stroke-width:2;stroke-linecap:butt;stroke-linejoin:miter;stroke-miterlimit:4;stroke-opacity:1;stroke-dasharray:none"
           d="m 72.492441,769.31585 c 22.553273,1.67447 42.879919,-2.21763 61.089139,-11.4033 l 24.84291,-51.31488"
           id="path3788-1"
           inkscape:connector-curvature="0"
           sodipodi:nodetypes="ccc" />
        <path
           style="fill:none;stroke:#31611c;stroke-width:2;stroke-linecap:butt;stroke-linejoin:miter;stroke-miterlimit:4;stroke-opacity:1;stroke-dasharray:none"
           d="m 64.754484,726.96072 c 9.277029,5.0494 27.036942,-0.0807 41.133356,-0.81452 10.09698,-12.8672 18.98402,-29.26188 18.32674,-41.54061"
           id="path3792-4"
           inkscape:connector-curvature="0"
           sodipodi:nodetypes="ccc" />
        <path
           style="fill:none;stroke:#31611c;stroke-width:2;stroke-linecap:butt;stroke-linejoin:miter;stroke-miterlimit:4;stroke-opacity:1;stroke-dasharray:none"
           d="m 56.202005,685.01284 c 1.181827,2.55683 9.278099,2.59931 22.39935,0.81453 2.94697,-10.48357 7.453607,-21.90293 5.294392,-29.32279"
           id="path3794-8"
           inkscape:connector-curvature="0"
           sodipodi:nodetypes="ccc" />
      </g>
      <g
         id="g3803-4"
         transform="matrix(-0.86900305,-0.49480669,-0.49480669,0.86900305,1089.2324,-1000.8426)">
        <path
           style="fill:#31c81a;fill-opacity:1;stroke:#007000;stroke-width:4;stroke-linecap:butt;stroke-linejoin:miter;stroke-miterlimit:4;stroke-opacity:1;stroke-dasharray:none"
           d="m 50.093092,639.36332 c -2.617134,14.39408 -4.53412,27.63571 -5.827693,39.8046 C 24.97125,860.67168 144.36756,803.52126 147.83571,772.16668 249.04484,749.53755 176.04576,671.69379 88.015085,646.56661 75.525466,643.00161 62.73327,640.49777 50.093092,639.36332 z"
           id="path3778-25"
           inkscape:connector-curvature="0"
           sodipodi:nodetypes="cscsc" />
        <path
           style="fill:#31611c;fill-opacity:1;stroke:none"
           d="M 188.96906,817.7799 C 121.01554,753.46731 77.349199,699.07387 49.685831,636.14154 105.5887,730.00974 148.15482,769.47434 196.29976,810.4492 z"
           id="path3776-94"
           inkscape:connector-curvature="0"
           sodipodi:nodetypes="cccc" />
        <path
           style="fill:none;stroke:#31611c;stroke-width:2;stroke-linecap:butt;stroke-linejoin:miter;stroke-miterlimit:4;stroke-opacity:1;stroke-dasharray:none"
           d="m 72.492441,769.31585 c 22.553273,1.67447 42.879919,-2.21763 61.089139,-11.4033 l 24.84291,-51.31488"
           id="path3788-18"
           inkscape:connector-curvature="0"
           sodipodi:nodetypes="ccc" />
        <path
           style="fill:none;stroke:#31611c;stroke-width:2;stroke-linecap:butt;stroke-linejoin:miter;stroke-miterlimit:4;stroke-opacity:1;stroke-dasharray:none"
           d="m 64.754484,726.96072 c 9.277029,5.0494 27.036942,-0.0807 41.133356,-0.81452 10.09698,-12.8672 18.98402,-29.26188 18.32674,-41.54061"
           id="path3792-41"
           inkscape:connector-curvature="0"
           sodipodi:nodetypes="ccc" />
        <path
           style="fill:none;stroke:#31611c;stroke-width:2;stroke-linecap:butt;stroke-linejoin:miter;stroke-miterlimit:4;stroke-opacity:1;stroke-dasharray:none"
           d="m 56.202005,685.01284 c 1.181827,2.55683 9.278099,2.59931 22.39935,0.81453 2.94697,-10.48357 7.453607,-21.90293 5.294392,-29.32279"
           id="path3794-7"
           inkscape:connector-curvature="0"
           sodipodi:nodetypes="ccc" />
      </g>
      <g
         id="g3803-8"
         transform="matrix(-0.14867801,-0.98888564,-0.98888564,0.14867801,1463.5666,110.18215)">
        <path
           style="fill:#31c81a;fill-opacity:1;stroke:#007000;stroke-width:4;stroke-linecap:butt;stroke-linejoin:miter;stroke-miterlimit:4;stroke-opacity:1;stroke-dasharray:none"
           d="m 50.093092,639.36332 c -2.617134,14.39408 -4.53412,27.63571 -5.827693,39.8046 C 24.97125,860.67168 144.36756,803.52126 147.83571,772.16668 249.04484,749.53755 176.04576,671.69379 88.015085,646.56661 75.525466,643.00161 62.73327,640.49777 50.093092,639.36332 z"
           id="path3778-6"
           inkscape:connector-curvature="0"
           sodipodi:nodetypes="cscsc" />
        <path
           style="fill:#31611c;fill-opacity:1;stroke:none"
           d="M 188.96906,817.7799 C 121.01554,753.46731 77.349199,699.07387 49.685831,636.14154 105.5887,730.00974 148.15482,769.47434 196.29976,810.4492 z"
           id="path3776-6"
           inkscape:connector-curvature="0"
           sodipodi:nodetypes="cccc" />
        <path
           style="fill:none;stroke:#31611c;stroke-width:2;stroke-linecap:butt;stroke-linejoin:miter;stroke-miterlimit:4;stroke-opacity:1;stroke-dasharray:none"
           d="m 72.492441,769.31585 c 22.553273,1.67447 42.879919,-2.21763 61.089139,-11.4033 l 24.84291,-51.31488"
           id="path3788-88"
           inkscape:connector-curvature="0"
           sodipodi:nodetypes="ccc" />
        <path
           style="fill:none;stroke:#31611c;stroke-width:2;stroke-linecap:butt;stroke-linejoin:miter;stroke-miterlimit:4;stroke-opacity:1;stroke-dasharray:none"
           d="m 64.754484,726.96072 c 9.277029,5.0494 27.036942,-0.0807 41.133356,-0.81452 10.09698,-12.8672 18.98402,-29.26188 18.32674,-41.54061"
           id="path3792-21"
           inkscape:connector-curvature="0"
           sodipodi:nodetypes="ccc" />
        <path
           style="fill:none;stroke:#31611c;stroke-width:2;stroke-linecap:butt;stroke-linejoin:miter;stroke-miterlimit:4;stroke-opacity:1;stroke-dasharray:none"
           d="m 56.202005,685.01284 c 1.181827,2.55683 9.278099,2.59931 22.39935,0.81453 2.94697,-10.48357 7.453607,-21.90293 5.294392,-29.32279"
           id="path3794-1"
           inkscape:connector-curvature="0"
           sodipodi:nodetypes="ccc" />
      </g>
      <g
         id="g3803-8-4"
         transform="matrix(-0.14867801,-0.98888563,-0.98888563,0.14867801,1665.8826,-37.478358)">
        <path
           style="fill:#31c81a;fill-opacity:1;stroke:#007000;stroke-width:4;stroke-linecap:butt;stroke-linejoin:miter;stroke-miterlimit:4;stroke-opacity:1;stroke-dasharray:none"
           d="m 50.093092,639.36332 c -2.617134,14.39408 -4.53412,27.63571 -5.827693,39.8046 C 24.97125,860.67168 144.36756,803.52126 147.83571,772.16668 249.04484,749.53755 176.04576,671.69379 88.015085,646.56661 75.525466,643.00161 62.73327,640.49777 50.093092,639.36332 z"
           id="path3778-6-9"
           inkscape:connector-curvature="0"
           sodipodi:nodetypes="cscsc" />
        <path
           style="fill:#31611c;fill-opacity:1;stroke:none"
           d="M 188.96906,817.7799 C 121.01554,753.46731 77.349199,699.07387 49.685831,636.14154 105.5887,730.00974 148.15482,769.47434 196.29976,810.4492 z"
           id="path3776-6-4"
           inkscape:connector-curvature="0"
           sodipodi:nodetypes="cccc" />
        <path
           style="fill:none;stroke:#31611c;stroke-width:2;stroke-linecap:butt;stroke-linejoin:miter;stroke-miterlimit:4;stroke-opacity:1;stroke-dasharray:none"
           d="m 72.492441,769.31585 c 22.553273,1.67447 42.879919,-2.21763 61.089139,-11.4033 l 24.84291,-51.31488"
           id="path3788-88-4"
           inkscape:connector-curvature="0"
           sodipodi:nodetypes="ccc" />
        <path
           style="fill:none;stroke:#31611c;stroke-width:2;stroke-linecap:butt;stroke-linejoin:miter;stroke-miterlimit:4;stroke-opacity:1;stroke-dasharray:none"
           d="m 64.754484,726.96072 c 9.277029,5.0494 27.036942,-0.0807 41.133356,-0.81452 10.09698,-12.8672 18.98402,-29.26188 18.32674,-41.54061"
           id="path3792-21-6"
           inkscape:connector-curvature="0"
           sodipodi:nodetypes="ccc" />
        <path
           style="fill:none;stroke:#31611c;stroke-width:2;stroke-linecap:butt;stroke-linejoin:miter;stroke-miterlimit:4;stroke-opacity:1;stroke-dasharray:none"
           d="m 56.202005,685.01284 c 1.181827,2.55683 9.278099,2.59931 22.39935,0.81453 2.94697,-10.48357 7.453607,-21.90293 5.294392,-29.32279"
           id="path3794-1-8"
           inkscape:connector-curvature="0"
           sodipodi:nodetypes="ccc" />
      </g>
      <g
         id="g3803-8-8"
         transform="matrix(0.10890152,-0.99405251,-0.99405251,-0.10890152,1857.6563,39.213125)"
         inkscape:transform-center-y="-8.3513315">
        <path
           style="fill:#31c81a;fill-opacity:1;stroke:#007000;stroke-width:4;stroke-linecap:butt;stroke-linejoin:miter;stroke-miterlimit:4;stroke-opacity:1;stroke-dasharray:none"
           d="m 50.093092,639.36332 c -2.617134,14.39408 -4.53412,27.63571 -5.827693,39.8046 C 24.97125,860.67168 144.36756,803.52126 147.83571,772.16668 249.04484,749.53755 176.04576,671.69379 88.015085,646.56661 75.525466,643.00161 62.73327,640.49777 50.093092,639.36332 z"
           id="path3778-6-1"
           inkscape:connector-curvature="0"
           sodipodi:nodetypes="cscsc" />
        <path
           style="fill:#31611c;fill-opacity:1;stroke:none"
           d="M 188.96906,817.7799 C 121.01554,753.46731 77.349199,699.07387 49.685831,636.14154 105.5887,730.00974 148.15482,769.47434 196.29976,810.4492 z"
           id="path3776-6-7"
           inkscape:connector-curvature="0"
           sodipodi:nodetypes="cccc" />
        <path
           style="fill:none;stroke:#31611c;stroke-width:2;stroke-linecap:butt;stroke-linejoin:miter;stroke-miterlimit:4;stroke-opacity:1;stroke-dasharray:none"
           d="m 72.492441,769.31585 c 22.553273,1.67447 42.879919,-2.21763 61.089139,-11.4033 l 24.84291,-51.31488"
           id="path3788-88-9"
           inkscape:connector-curvature="0"
           sodipodi:nodetypes="ccc" />
        <path
           style="fill:none;stroke:#31611c;stroke-width:2;stroke-linecap:butt;stroke-linejoin:miter;stroke-miterlimit:4;stroke-opacity:1;stroke-dasharray:none"
           d="m 64.754484,726.96072 c 9.277029,5.0494 27.036942,-0.0807 41.133356,-0.81452 10.09698,-12.8672 18.98402,-29.26188 18.32674,-41.54061"
           id="path3792-21-3"
           inkscape:connector-curvature="0"
           sodipodi:nodetypes="ccc" />
        <path
           style="fill:none;stroke:#31611c;stroke-width:2;stroke-linecap:butt;stroke-linejoin:miter;stroke-miterlimit:4;stroke-opacity:1;stroke-dasharray:none"
           d="m 56.202005,685.01284 c 1.181827,2.55683 9.278099,2.59931 22.39935,0.81453 2.94697,-10.48357 7.453607,-21.90293 5.294392,-29.32279"
           id="path3794-1-0"
           inkscape:connector-curvature="0"
           sodipodi:nodetypes="ccc" />
      </g>
      <g
         id="g3803-8-9"
         transform="matrix(0.35592613,-0.93451406,-0.93451406,-0.35592613,2002.2772,113.36021)">
        <path
           style="fill:#31c81a;fill-opacity:1;stroke:#007000;stroke-width:4;stroke-linecap:butt;stroke-linejoin:miter;stroke-miterlimit:4;stroke-opacity:1;stroke-dasharray:none"
           d="m 50.093092,639.36332 c -2.617134,14.39408 -4.53412,27.63571 -5.827693,39.8046 C 24.97125,860.67168 144.36756,803.52126 147.83571,772.16668 249.04484,749.53755 176.04576,671.69379 88.015085,646.56661 75.525466,643.00161 62.73327,640.49777 50.093092,639.36332 z"
           id="path3778-6-2"
           inkscape:connector-curvature="0"
           sodipodi:nodetypes="cscsc" />
        <path
           style="fill:#31611c;fill-opacity:1;stroke:none"
           d="M 188.96906,817.7799 C 121.01554,753.46731 77.349199,699.07387 49.685831,636.14154 105.5887,730.00974 148.15482,769.47434 196.29976,810.4492 z"
           id="path3776-6-72"
           inkscape:connector-curvature="0"
           sodipodi:nodetypes="cccc" />
        <path
           style="fill:none;stroke:#31611c;stroke-width:2;stroke-linecap:butt;stroke-linejoin:miter;stroke-miterlimit:4;stroke-opacity:1;stroke-dasharray:none"
           d="m 72.492441,769.31585 c 22.553273,1.67447 42.879919,-2.21763 61.089139,-11.4033 l 24.84291,-51.31488"
           id="path3788-88-0"
           inkscape:connector-curvature="0"
           sodipodi:nodetypes="ccc" />
        <path
           style="fill:none;stroke:#31611c;stroke-width:2;stroke-linecap:butt;stroke-linejoin:miter;stroke-miterlimit:4;stroke-opacity:1;stroke-dasharray:none"
           d="m 64.754484,726.96072 c 9.277029,5.0494 27.036942,-0.0807 41.133356,-0.81452 10.09698,-12.8672 18.98402,-29.26188 18.32674,-41.54061"
           id="path3792-21-8"
           inkscape:connector-curvature="0"
           sodipodi:nodetypes="ccc" />
        <path
           style="fill:none;stroke:#31611c;stroke-width:2;stroke-linecap:butt;stroke-linejoin:miter;stroke-miterlimit:4;stroke-opacity:1;stroke-dasharray:none"
           d="m 56.202005,685.01284 c 1.181827,2.55683 9.278099,2.59931 22.39935,0.81453 2.94697,-10.48357 7.453607,-21.90293 5.294392,-29.32279"
           id="path3794-1-4"
           inkscape:connector-curvature="0"
           sodipodi:nodetypes="ccc" />
      </g>
      <g
         id="g3803-8-9-7"
         transform="matrix(0.35592611,-0.93451405,-0.93451405,-0.35592611,2209.1455,21.442402)">
        <path
           style="fill:#31c81a;fill-opacity:1;stroke:#007000;stroke-width:4;stroke-linecap:butt;stroke-linejoin:miter;stroke-miterlimit:4;stroke-opacity:1;stroke-dasharray:none"
           d="m 50.093092,639.36332 c -2.617134,14.39408 -4.53412,27.63571 -5.827693,39.8046 C 24.97125,860.67168 144.36756,803.52126 147.83571,772.16668 249.04484,749.53755 176.04576,671.69379 88.015085,646.56661 75.525466,643.00161 62.73327,640.49777 50.093092,639.36332 z"
           id="path3778-6-2-2"
           inkscape:connector-curvature="0"
           sodipodi:nodetypes="cscsc" />
        <path
           style="fill:#31611c;fill-opacity:1;stroke:none"
           d="M 188.96906,817.7799 C 121.01554,753.46731 77.349199,699.07387 49.685831,636.14154 105.5887,730.00974 148.15482,769.47434 196.29976,810.4492 z"
           id="path3776-6-72-5"
           inkscape:connector-curvature="0"
           sodipodi:nodetypes="cccc" />
        <path
           style="fill:none;stroke:#31611c;stroke-width:2;stroke-linecap:butt;stroke-linejoin:miter;stroke-miterlimit:4;stroke-opacity:1;stroke-dasharray:none"
           d="m 72.492441,769.31585 c 22.553273,1.67447 42.879919,-2.21763 61.089139,-11.4033 l 24.84291,-51.31488"
           id="path3788-88-0-6"
           inkscape:connector-curvature="0"
           sodipodi:nodetypes="ccc" />
        <path
           style="fill:none;stroke:#31611c;stroke-width:2;stroke-linecap:butt;stroke-linejoin:miter;stroke-miterlimit:4;stroke-opacity:1;stroke-dasharray:none"
           d="m 64.754484,726.96072 c 9.277029,5.0494 27.036942,-0.0807 41.133356,-0.81452 10.09698,-12.8672 18.98402,-29.26188 18.32674,-41.54061"
           id="path3792-21-8-9"
           inkscape:connector-curvature="0"
           sodipodi:nodetypes="ccc" />
        <path
           style="fill:none;stroke:#31611c;stroke-width:2;stroke-linecap:butt;stroke-linejoin:miter;stroke-miterlimit:4;stroke-opacity:1;stroke-dasharray:none"
           d="m 56.202005,685.01284 c 1.181827,2.55683 9.278099,2.59931 22.39935,0.81453 2.94697,-10.48357 7.453607,-21.90293 5.294392,-29.32279"
           id="path3794-1-4-6"
           inkscape:connector-curvature="0"
           sodipodi:nodetypes="ccc" />
      </g>
      <g
         id="g3803-8-9-76"
         transform="matrix(0.35592611,-0.93451405,-0.93451405,-0.35592611,2384.0394,-60.539131)">
        <path
           style="fill:#31c81a;fill-opacity:1;stroke:#007000;stroke-width:4;stroke-linecap:butt;stroke-linejoin:miter;stroke-miterlimit:4;stroke-opacity:1;stroke-dasharray:none"
           d="m 50.093092,639.36332 c -2.617134,14.39408 -4.53412,27.63571 -5.827693,39.8046 C 24.97125,860.67168 144.36756,803.52126 147.83571,772.16668 249.04484,749.53755 176.04576,671.69379 88.015085,646.56661 75.525466,643.00161 62.73327,640.49777 50.093092,639.36332 z"
           id="path3778-6-2-4"
           inkscape:connector-curvature="0"
           sodipodi:nodetypes="cscsc" />
        <path
           style="fill:#31611c;fill-opacity:1;stroke:none"
           d="M 188.96906,817.7799 C 121.01554,753.46731 77.349199,699.07387 49.685831,636.14154 105.5887,730.00974 148.15482,769.47434 196.29976,810.4492 z"
           id="path3776-6-72-7"
           inkscape:connector-curvature="0"
           sodipodi:nodetypes="cccc" />
        <path
           style="fill:none;stroke:#31611c;stroke-width:2;stroke-linecap:butt;stroke-linejoin:miter;stroke-miterlimit:4;stroke-opacity:1;stroke-dasharray:none"
           d="m 72.492441,769.31585 c 22.553273,1.67447 42.879919,-2.21763 61.089139,-11.4033 l 24.84291,-51.31488"
           id="path3788-88-0-4"
           inkscape:connector-curvature="0"
           sodipodi:nodetypes="ccc" />
        <path
           style="fill:none;stroke:#31611c;stroke-width:2;stroke-linecap:butt;stroke-linejoin:miter;stroke-miterlimit:4;stroke-opacity:1;stroke-dasharray:none"
           d="m 64.754484,726.96072 c 9.277029,5.0494 27.036942,-0.0807 41.133356,-0.81452 10.09698,-12.8672 18.98402,-29.26188 18.32674,-41.54061"
           id="path3792-21-8-4"
           inkscape:connector-curvature="0"
           sodipodi:nodetypes="ccc" />
        <path
           style="fill:none;stroke:#31611c;stroke-width:2;stroke-linecap:butt;stroke-linejoin:miter;stroke-miterlimit:4;stroke-opacity:1;stroke-dasharray:none"
           d="m 56.202005,685.01284 c 1.181827,2.55683 9.278099,2.59931 22.39935,0.81453 2.94697,-10.48357 7.453607,-21.90293 5.294392,-29.32279"
           id="path3794-1-4-63"
           inkscape:connector-curvature="0"
           sodipodi:nodetypes="ccc" />
      </g>
      <text
         xml:space="preserve"
         style="font-size:40px;font-style:normal;font-weight:normal;line-height:125%;letter-spacing:0px;word-spacing:0px;fill:#000000;fill-opacity:1;stroke:none;font-family:Sans;opacity:0.48"
         x="546.58026"
         y="708.5177"
         id="text4161"
         sodipodi:linespacing="125%"
         transform="matrix(4.7446813,0,0,4.7446813,-1189.9657,-3247.8282)"><tspan
           sodipodi:role="line"
           id="tspan4163"
           x="546.58026"
           y="708.5177" /></text>
      <text
         xml:space="preserve"
         style="font-size:40px;font-style:normal;font-weight:normal;line-height:125%;letter-spacing:0px;word-spacing:0px;fill:#000000;fill-opacity:1;stroke:none;font-family:Sans"
         x="540.82074"
         y="729.25208"
         id="text4165"
         sodipodi:linespacing="125%"
         transform="matrix(4.7446813,0,0,4.7446813,-1189.9657,-3247.8282)"><tspan
           sodipodi:role="line"
           id="tspan4167"
           x="540.82074"
           y="729.25208" /></text>
      <text
         xml:space="preserve"
         style="font-size:56.9361763px;font-style:normal;font-variant:normal;font-weight:normal;font-stretch:normal;text-align:start;line-height:125%;letter-spacing:0px;word-spacing:0px;writing-mode:lr-tb;text-anchor:start;fill:#000000;fill-opacity:1;stroke:none;font-family:Sans;-inkscape-font-specification:Sans"
         x="1158.5812"
         y="21.564877"
         id="text4169"
         sodipodi:linespacing="125%"><tspan
           sodipodi:role="line"
           id="tspan4171"
           x="1158.5812"
           y="21.564877">1.0-rc1</tspan></text>
      <text
         xml:space="preserve"
         style="font-size:85.40426636px;font-style:normal;font-weight:normal;line-height:125%;letter-spacing:0px;word-spacing:0px;fill:#000000;fill-opacity:1;stroke:none;font-family:Sans"
         x="1345.3257"
         y="-66.210228"
         id="text4169-06"
         sodipodi:linespacing="125%"><tspan
           sodipodi:role="line"
           id="tspan4171-4"
           x="1345.3257"
           y="-66.210228">1.0.0</tspan></text>
      <text
         xml:space="preserve"
         style="font-size:18px;font-style:normal;font-weight:normal;line-height:125%;letter-spacing:0px;word-spacing:0px;fill:#000000;fill-opacity:1;stroke:none;font-family:Sans"
         x="598.41608"
         y="665.32117"
         id="text4230"
         sodipodi:linespacing="125%"
         transform="matrix(4.7446813,0,0,4.7446813,-1189.9657,-3247.8282)"><tspan
           sodipodi:role="line"
           id="tspan4232"
           x="598.41608"
           y="665.32117" /></text>
      <text
         xml:space="preserve"
         style="font-size:14.00000013px;font-style:normal;font-weight:normal;line-height:125%;letter-spacing:0px;word-spacing:0px;fill:#000000;fill-opacity:1;stroke:none;font-family:Sans"
         x="568.17853"
         y="709.38165"
         id="text4234"
         sodipodi:linespacing="125%"
         transform="matrix(4.7446813,0,0,4.7446813,-1189.9657,-3247.8282)"><tspan
           sodipodi:role="line"
           id="tspan4236"
           x="568.17853"
           y="709.38165" /></text>
      <text
         xml:space="preserve"
         style="font-size:56.9361763px;font-style:normal;font-variant:normal;font-weight:normal;font-stretch:normal;text-align:start;line-height:125%;letter-spacing:0px;word-spacing:0px;writing-mode:lr-tb;text-anchor:start;fill:#000000;fill-opacity:1;stroke:none;font-family:Sans;-inkscape-font-specification:Sans"
         x="1587.86"
         y="-184.04346"
         id="text4169-2"
         sodipodi:linespacing="125%"><tspan
           sodipodi:role="line"
           id="tspan4171-8"
           x="1587.86"
           y="-184.04346">1.0.1</tspan></text>
      <text
         xml:space="preserve"
         style="font-size:56.9361763px;font-style:normal;font-variant:normal;font-weight:normal;font-stretch:normal;text-align:start;line-height:125%;letter-spacing:0px;word-spacing:0px;writing-mode:lr-tb;text-anchor:start;fill:#000000;fill-opacity:1;stroke:none;font-family:Sans;-inkscape-font-specification:Sans"
         x="1756.9417"
         y="-259.95834"
         id="text4169-4"
         sodipodi:linespacing="125%"><tspan
           sodipodi:role="line"
           id="tspan4171-1"
           x="1756.9417"
           y="-259.95834">1.0.2</tspan></text>
      <text
         xml:space="preserve"
         style="font-size:56.9361763px;font-style:normal;font-variant:normal;font-weight:normal;font-stretch:normal;text-align:start;line-height:125%;letter-spacing:0px;word-spacing:0px;writing-mode:lr-tb;text-anchor:start;fill:#000000;fill-opacity:1;stroke:none;font-family:Sans;-inkscape-font-specification:Sans"
         x="757.54071"
         y="247.72258"
         id="text4169-5"
         sodipodi:linespacing="125%"><tspan
           sodipodi:role="line"
           id="tspan4171-5"
           x="757.54071"
           y="247.72258">1.0-beta1</tspan></text>
      <text
         xml:space="preserve"
         style="font-size:56.9361763px;font-style:normal;font-variant:normal;font-weight:normal;font-stretch:normal;text-align:start;line-height:125%;letter-spacing:0px;word-spacing:0px;writing-mode:lr-tb;text-anchor:start;fill:#000000;fill-opacity:1;stroke:none;font-family:Sans;-inkscape-font-specification:Sans"
         x="937.83856"
         y="129.10551"
         id="text4169-0"
         sodipodi:linespacing="125%"><tspan
           sodipodi:role="line"
           id="tspan4171-50"
           x="937.83856"
           y="129.10551">1.0-beta2</tspan></text>
      <text
         xml:space="preserve"
         style="font-size:56.9361763px;font-style:normal;font-variant:normal;font-weight:normal;font-stretch:normal;text-align:start;line-height:125%;letter-spacing:0px;word-spacing:0px;writing-mode:lr-tb;text-anchor:start;fill:#000000;fill-opacity:1;stroke:none;font-family:Sans;-inkscape-font-specification:Sans"
         x="755.3537"
         y="606.57153"
         id="text4169-7"
         sodipodi:linespacing="125%"><tspan
           sodipodi:role="line"
           id="tspan4171-0"
           x="755.3537"
           y="606.57153">0.9.10</tspan></text>
      <text
         xml:space="preserve"
         style="font-size:56.9361763px;font-style:normal;font-variant:normal;font-weight:normal;font-stretch:normal;text-align:start;line-height:125%;letter-spacing:0px;word-spacing:0px;writing-mode:lr-tb;text-anchor:start;fill:#000000;fill-opacity:1;stroke:none;font-family:Sans;-inkscape-font-specification:Sans"
         x="-98.688942"
         y="416.78427"
         id="text4169-6"
         sodipodi:linespacing="125%"><tspan
           sodipodi:role="line"
           id="tspan4171-2"
           x="-98.688942"
           y="416.78427">0.9.11</tspan></text>
      <text
         xml:space="preserve"
         style="font-size:56.9361763px;font-style:normal;font-variant:normal;font-weight:normal;font-stretch:normal;text-align:start;line-height:125%;letter-spacing:0px;word-spacing:0px;writing-mode:lr-tb;text-anchor:start;fill:#000000;fill-opacity:1;stroke:none;font-family:Sans;-inkscape-font-specification:Sans"
         x="-96.501953"
         y="840.80774"
         id="text4169-3"
         sodipodi:linespacing="125%"><tspan
           sodipodi:role="line"
           id="tspan4171-47"
           x="-96.501953"
           y="840.80774">0.9.9</tspan></text>
      <text
         xml:space="preserve"
         style="font-size:56.9361763px;font-style:normal;font-variant:normal;font-weight:normal;font-stretch:normal;text-align:start;line-height:125%;letter-spacing:0px;word-spacing:0px;writing-mode:lr-tb;text-anchor:start;fill:#000000;fill-opacity:1;stroke:none;font-family:Sans;-inkscape-font-specification:Sans"
         x="-165.1145"
         y="-133.59877"
         id="text4169-9"
         sodipodi:linespacing="125%"><tspan
           sodipodi:role="line"
           id="tspan4171-81"
           x="-165.1145"
           y="-133.59877">1.1-alpha1</tspan></text>
      <text
         xml:space="preserve"
         style="font-size:56.9361763px;font-style:normal;font-variant:normal;font-weight:normal;font-stretch:normal;text-align:start;line-height:125%;letter-spacing:0px;word-spacing:0px;writing-mode:lr-tb;text-anchor:start;fill:#000000;fill-opacity:1;stroke:none;font-family:Sans;-inkscape-font-specification:Sans"
         x="672.13635"
         y="-539.89459"
         id="text4169-60"
         sodipodi:linespacing="125%"><tspan
           sodipodi:role="line"
           id="tspan4171-6"
           x="672.13635"
           y="-539.89459">1.1-alpha2</tspan></text>
      <text
         xml:space="preserve"
         style="font-size:56.9361763px;font-style:normal;font-variant:normal;font-weight:normal;font-stretch:normal;text-align:start;line-height:125%;letter-spacing:0px;word-spacing:0px;writing-mode:lr-tb;text-anchor:start;fill:#000000;fill-opacity:1;stroke:none;font-family:Sans;-inkscape-font-specification:Sans"
         x="-167.67216"
         y="-402.29895"
         id="text4169-62"
         sodipodi:linespacing="125%"><tspan
           sodipodi:role="line"
           id="tspan4171-16"
           x="-167.67216"
           y="-402.29895">1.1-alpha3</tspan></text>
      <g
         id="g3803-8-98"
         transform="matrix(-0.17897217,-0.98385411,0.98385411,-0.17897217,-1426.1478,-918.57809)">
        <path
           style="fill:#31c81a;fill-opacity:1;stroke:#007000;stroke-width:4;stroke-linecap:butt;stroke-linejoin:miter;stroke-miterlimit:4;stroke-opacity:1;stroke-dasharray:none"
           d="m 50.093092,639.36332 c -2.617134,14.39408 -4.53412,27.63571 -5.827693,39.8046 C 24.97125,860.67168 144.36756,803.52126 147.83571,772.16668 249.04484,749.53755 176.04576,671.69379 88.015085,646.56661 75.525466,643.00161 62.73327,640.49777 50.093092,639.36332 z"
           id="path3778-6-91"
           inkscape:connector-curvature="0"
           sodipodi:nodetypes="cscsc" />
        <path
           style="fill:#31611c;fill-opacity:1;stroke:none"
           d="M 188.96906,817.7799 C 121.01554,753.46731 77.349199,699.07387 49.685831,636.14154 105.5887,730.00974 148.15482,769.47434 196.29976,810.4492 z"
           id="path3776-6-33"
           inkscape:connector-curvature="0"
           sodipodi:nodetypes="cccc" />
        <path
           style="fill:none;stroke:#31611c;stroke-width:2;stroke-linecap:butt;stroke-linejoin:miter;stroke-miterlimit:4;stroke-opacity:1;stroke-dasharray:none"
           d="m 72.492441,769.31585 c 22.553273,1.67447 42.879919,-2.21763 61.089139,-11.4033 l 24.84291,-51.31488"
           id="path3788-88-44"
           inkscape:connector-curvature="0"
           sodipodi:nodetypes="ccc" />
        <path
           style="fill:none;stroke:#31611c;stroke-width:2;stroke-linecap:butt;stroke-linejoin:miter;stroke-miterlimit:4;stroke-opacity:1;stroke-dasharray:none"
           d="m 64.754484,726.96072 c 9.277029,5.0494 27.036942,-0.0807 41.133356,-0.81452 10.09698,-12.8672 18.98402,-29.26188 18.32674,-41.54061"
           id="path3792-21-9"
           inkscape:connector-curvature="0"
           sodipodi:nodetypes="ccc" />
        <path
           style="fill:none;stroke:#31611c;stroke-width:2;stroke-linecap:butt;stroke-linejoin:miter;stroke-miterlimit:4;stroke-opacity:1;stroke-dasharray:none"
           d="m 56.202005,685.01284 c 1.181827,2.55683 9.278099,2.59931 22.39935,0.81453 2.94697,-10.48357 7.453607,-21.90293 5.294392,-29.32279"
           id="path3794-1-48"
           inkscape:connector-curvature="0"
           sodipodi:nodetypes="ccc" />
      </g>
      <g
         id="g3803-3-6"
         transform="matrix(0.86900305,-0.49480669,0.49480669,0.86900305,-243.16949,-1762.8845)">
        <path
           style="fill:#31c81a;fill-opacity:1;stroke:#007000;stroke-width:4;stroke-linecap:butt;stroke-linejoin:miter;stroke-miterlimit:4;stroke-opacity:1;stroke-dasharray:none"
           d="m 50.093092,639.36332 c -2.617134,14.39408 -4.53412,27.63571 -5.827693,39.8046 C 24.97125,860.67168 144.36756,803.52126 147.83571,772.16668 249.04484,749.53755 176.04576,671.69379 88.015085,646.56661 75.525466,643.00161 62.73327,640.49777 50.093092,639.36332 z"
           id="path3778-81-3"
           inkscape:connector-curvature="0"
           sodipodi:nodetypes="cscsc" />
        <path
           style="fill:#31611c;fill-opacity:1;stroke:none"
           d="M 188.96906,817.7799 C 121.01554,753.46731 77.349199,699.07387 49.685831,636.14154 105.5887,730.00974 148.15482,769.47434 196.29976,810.4492 z"
           id="path3776-34-1"
           inkscape:connector-curvature="0"
           sodipodi:nodetypes="cccc" />
        <path
           style="fill:none;stroke:#31611c;stroke-width:2;stroke-linecap:butt;stroke-linejoin:miter;stroke-miterlimit:4;stroke-opacity:1;stroke-dasharray:none"
           d="m 72.492441,769.31585 c 22.553273,1.67447 42.879919,-2.21763 61.089139,-11.4033 l 24.84291,-51.31488"
           id="path3788-1-4"
           inkscape:connector-curvature="0"
           sodipodi:nodetypes="ccc" />
        <path
           style="fill:none;stroke:#31611c;stroke-width:2;stroke-linecap:butt;stroke-linejoin:miter;stroke-miterlimit:4;stroke-opacity:1;stroke-dasharray:none"
           d="m 64.754484,726.96072 c 9.277029,5.0494 27.036942,-0.0807 41.133356,-0.81452 10.09698,-12.8672 18.98402,-29.26188 18.32674,-41.54061"
           id="path3792-4-5"
           inkscape:connector-curvature="0"
           sodipodi:nodetypes="ccc" />
        <path
           style="fill:none;stroke:#31611c;stroke-width:2;stroke-linecap:butt;stroke-linejoin:miter;stroke-miterlimit:4;stroke-opacity:1;stroke-dasharray:none"
           d="m 56.202005,685.01284 c 1.181827,2.55683 9.278099,2.59931 22.39935,0.81453 2.94697,-10.48357 7.453607,-21.90293 5.294392,-29.32279"
           id="path3794-8-3"
           inkscape:connector-curvature="0"
           sodipodi:nodetypes="ccc" />
      </g>
      <g
         id="g3803-4-2"
         transform="matrix(-0.86900305,-0.49480669,-0.49480669,0.86900305,1089.6215,-2064.1718)">
        <path
           style="fill:#31c81a;fill-opacity:1;stroke:#007000;stroke-width:4;stroke-linecap:butt;stroke-linejoin:miter;stroke-miterlimit:4;stroke-opacity:1;stroke-dasharray:none"
           d="m 50.093092,639.36332 c -2.617134,14.39408 -4.53412,27.63571 -5.827693,39.8046 C 24.97125,860.67168 144.36756,803.52126 147.83571,772.16668 249.04484,749.53755 176.04576,671.69379 88.015085,646.56661 75.525466,643.00161 62.73327,640.49777 50.093092,639.36332 z"
           id="path3778-25-9"
           inkscape:connector-curvature="0"
           sodipodi:nodetypes="cscsc" />
        <path
           style="fill:#31611c;fill-opacity:1;stroke:none"
           d="M 188.96906,817.7799 C 121.01554,753.46731 77.349199,699.07387 49.685831,636.14154 105.5887,730.00974 148.15482,769.47434 196.29976,810.4492 z"
           id="path3776-94-6"
           inkscape:connector-curvature="0"
           sodipodi:nodetypes="cccc" />
        <path
           style="fill:none;stroke:#31611c;stroke-width:2;stroke-linecap:butt;stroke-linejoin:miter;stroke-miterlimit:4;stroke-opacity:1;stroke-dasharray:none"
           d="m 72.492441,769.31585 c 22.553273,1.67447 42.879919,-2.21763 61.089139,-11.4033 l 24.84291,-51.31488"
           id="path3788-18-0"
           inkscape:connector-curvature="0"
           sodipodi:nodetypes="ccc" />
        <path
           style="fill:none;stroke:#31611c;stroke-width:2;stroke-linecap:butt;stroke-linejoin:miter;stroke-miterlimit:4;stroke-opacity:1;stroke-dasharray:none"
           d="m 64.754484,726.96072 c 9.277029,5.0494 27.036942,-0.0807 41.133356,-0.81452 10.09698,-12.8672 18.98402,-29.26188 18.32674,-41.54061"
           id="path3792-41-7"
           inkscape:connector-curvature="0"
           sodipodi:nodetypes="ccc" />
        <path
           style="fill:none;stroke:#31611c;stroke-width:2;stroke-linecap:butt;stroke-linejoin:miter;stroke-miterlimit:4;stroke-opacity:1;stroke-dasharray:none"
           d="m 56.202005,685.01284 c 1.181827,2.55683 9.278099,2.59931 22.39935,0.81453 2.94697,-10.48357 7.453607,-21.90293 5.294392,-29.32279"
           id="path3794-7-7"
           inkscape:connector-curvature="0"
           sodipodi:nodetypes="ccc" />
      </g>
      <g
         id="g3803-8-98-1"
         transform="matrix(-0.18421872,-1.0235338,1.0126956,-0.18619029,-1227.4671,-790.48257)">
        <path
           style="fill:#31c81a;fill-opacity:1;stroke:#007000;stroke-width:4;stroke-linecap:butt;stroke-linejoin:miter;stroke-miterlimit:4;stroke-opacity:1;stroke-dasharray:none"
           d="m 50.093092,639.36332 c -2.617134,14.39408 -4.53412,27.63571 -5.827693,39.8046 C 24.97125,860.67168 144.36756,803.52126 147.83571,772.16668 249.04484,749.53755 176.04576,671.69379 88.015085,646.56661 75.525466,643.00161 62.73327,640.49777 50.093092,639.36332 z"
           id="path3778-6-91-4"
           inkscape:connector-curvature="0"
           sodipodi:nodetypes="cscsc" />
        <path
           style="fill:#31611c;fill-opacity:1;stroke:none"
           d="M 188.96906,817.7799 C 121.01554,753.46731 77.349199,699.07387 49.685831,636.14154 105.5887,730.00974 148.15482,769.47434 196.29976,810.4492 z"
           id="path3776-6-33-8"
           inkscape:connector-curvature="0"
           sodipodi:nodetypes="cccc" />
        <path
           style="fill:none;stroke:#31611c;stroke-width:2;stroke-linecap:butt;stroke-linejoin:miter;stroke-miterlimit:4;stroke-opacity:1;stroke-dasharray:none"
           d="m 72.492441,769.31585 c 22.553273,1.67447 42.879919,-2.21763 61.089139,-11.4033 l 24.84291,-51.31488"
           id="path3788-88-44-9"
           inkscape:connector-curvature="0"
           sodipodi:nodetypes="ccc" />
        <path
           style="fill:none;stroke:#31611c;stroke-width:2;stroke-linecap:butt;stroke-linejoin:miter;stroke-miterlimit:4;stroke-opacity:1;stroke-dasharray:none"
           d="m 64.754484,726.96072 c 9.277029,5.0494 27.036942,-0.0807 41.133356,-0.81452 10.09698,-12.8672 18.98402,-29.26188 18.32674,-41.54061"
           id="path3792-21-9-7"
           inkscape:connector-curvature="0"
           sodipodi:nodetypes="ccc" />
        <path
           style="fill:none;stroke:#31611c;stroke-width:2;stroke-linecap:butt;stroke-linejoin:miter;stroke-miterlimit:4;stroke-opacity:1;stroke-dasharray:none"
           d="m 56.202005,685.01284 c 1.181827,2.55683 9.278099,2.59931 22.39935,0.81453 2.94697,-10.48357 7.453607,-21.90293 5.294392,-29.32279"
           id="path3794-1-48-9"
           inkscape:connector-curvature="0"
           sodipodi:nodetypes="ccc" />
      </g>
      <g
         id="g3803-8-98-9"
         transform="matrix(-0.17897218,-0.98385409,0.98385409,-0.17897218,-993.49753,-685.50457)">
        <path
           style="fill:#31c81a;fill-opacity:1;stroke:#007000;stroke-width:4;stroke-linecap:butt;stroke-linejoin:miter;stroke-miterlimit:4;stroke-opacity:1;stroke-dasharray:none"
           d="m 50.093092,639.36332 c -2.617134,14.39408 -4.53412,27.63571 -5.827693,39.8046 C 24.97125,860.67168 144.36756,803.52126 147.83571,772.16668 249.04484,749.53755 176.04576,671.69379 88.015085,646.56661 75.525466,643.00161 62.73327,640.49777 50.093092,639.36332 z"
           id="path3778-6-91-0"
           inkscape:connector-curvature="0"
           sodipodi:nodetypes="cscsc" />
        <path
           style="fill:#31611c;fill-opacity:1;stroke:none"
           d="M 188.96906,817.7799 C 121.01554,753.46731 77.349199,699.07387 49.685831,636.14154 105.5887,730.00974 148.15482,769.47434 196.29976,810.4492 z"
           id="path3776-6-33-82"
           inkscape:connector-curvature="0"
           sodipodi:nodetypes="cccc" />
        <path
           style="fill:none;stroke:#31611c;stroke-width:2;stroke-linecap:butt;stroke-linejoin:miter;stroke-miterlimit:4;stroke-opacity:1;stroke-dasharray:none"
           d="m 72.492441,769.31585 c 22.553273,1.67447 42.879919,-2.21763 61.089139,-11.4033 l 24.84291,-51.31488"
           id="path3788-88-44-5"
           inkscape:connector-curvature="0"
           sodipodi:nodetypes="ccc" />
        <path
           style="fill:none;stroke:#31611c;stroke-width:2;stroke-linecap:butt;stroke-linejoin:miter;stroke-miterlimit:4;stroke-opacity:1;stroke-dasharray:none"
           d="m 64.754484,726.96072 c 9.277029,5.0494 27.036942,-0.0807 41.133356,-0.81452 10.09698,-12.8672 18.98402,-29.26188 18.32674,-41.54061"
           id="path3792-21-9-3"
           inkscape:connector-curvature="0"
           sodipodi:nodetypes="ccc" />
        <path
           style="fill:none;stroke:#31611c;stroke-width:2;stroke-linecap:butt;stroke-linejoin:miter;stroke-miterlimit:4;stroke-opacity:1;stroke-dasharray:none"
           d="m 56.202005,685.01284 c 1.181827,2.55683 9.278099,2.59931 22.39935,0.81453 2.94697,-10.48357 7.453607,-21.90293 5.294392,-29.32279"
           id="path3794-1-48-0"
           inkscape:connector-curvature="0"
           sodipodi:nodetypes="ccc" />
      </g>
      <g
         id="g3803-8-98-0"
         transform="matrix(-0.17897218,-0.98385409,0.98385409,-0.17897218,-765.75281,-550.28115)">
        <path
           style="fill:#31c81a;fill-opacity:1;stroke:#007000;stroke-width:4;stroke-linecap:butt;stroke-linejoin:miter;stroke-miterlimit:4;stroke-opacity:1;stroke-dasharray:none"
           d="m 50.093092,639.36332 c -2.617134,14.39408 -4.53412,27.63571 -5.827693,39.8046 C 24.97125,860.67168 144.36756,803.52126 147.83571,772.16668 249.04484,749.53755 176.04576,671.69379 88.015085,646.56661 75.525466,643.00161 62.73327,640.49777 50.093092,639.36332 z"
           id="path3778-6-91-46"
           inkscape:connector-curvature="0"
           sodipodi:nodetypes="cscsc" />
        <path
           style="fill:#31611c;fill-opacity:1;stroke:none"
           d="M 188.96906,817.7799 C 121.01554,753.46731 77.349199,699.07387 49.685831,636.14154 105.5887,730.00974 148.15482,769.47434 196.29976,810.4492 z"
           id="path3776-6-33-3"
           inkscape:connector-curvature="0"
           sodipodi:nodetypes="cccc" />
        <path
           style="fill:none;stroke:#31611c;stroke-width:2;stroke-linecap:butt;stroke-linejoin:miter;stroke-miterlimit:4;stroke-opacity:1;stroke-dasharray:none"
           d="m 72.492441,769.31585 c 22.553273,1.67447 42.879919,-2.21763 61.089139,-11.4033 l 24.84291,-51.31488"
           id="path3788-88-44-8"
           inkscape:connector-curvature="0"
           sodipodi:nodetypes="ccc" />
        <path
           style="fill:none;stroke:#31611c;stroke-width:2;stroke-linecap:butt;stroke-linejoin:miter;stroke-miterlimit:4;stroke-opacity:1;stroke-dasharray:none"
           d="m 64.754484,726.96072 c 9.277029,5.0494 27.036942,-0.0807 41.133356,-0.81452 10.09698,-12.8672 18.98402,-29.26188 18.32674,-41.54061"
           id="path3792-21-9-31"
           inkscape:connector-curvature="0"
           sodipodi:nodetypes="ccc" />
        <path
           style="fill:none;stroke:#31611c;stroke-width:2;stroke-linecap:butt;stroke-linejoin:miter;stroke-miterlimit:4;stroke-opacity:1;stroke-dasharray:none"
           d="m 56.202005,685.01284 c 1.181827,2.55683 9.278099,2.59931 22.39935,0.81453 2.94697,-10.48357 7.453607,-21.90293 5.294392,-29.32279"
           id="path3794-1-48-1"
           inkscape:connector-curvature="0"
           sodipodi:nodetypes="ccc" />
      </g>
      <text
         xml:space="preserve"
         style="font-size:56.9361763px;font-style:normal;font-variant:normal;font-weight:normal;font-stretch:normal;text-align:start;line-height:125%;letter-spacing:0px;word-spacing:0px;writing-mode:lr-tb;text-anchor:start;fill:#000000;fill-opacity:1;stroke:none;font-family:Sans;-inkscape-font-specification:Sans"
         x="-307.64026"
         y="-618.18182"
         id="text4169-62-7"
         sodipodi:linespacing="125%"><tspan
           sodipodi:role="line"
           id="tspan4171-16-0"
           x="-307.64026"
           y="-618.18182">1.1-beta1</tspan></text>
      <text
         xml:space="preserve"
         style="font-size:56.9361763px;font-style:normal;font-variant:normal;font-weight:normal;font-stretch:normal;text-align:start;line-height:125%;letter-spacing:0px;word-spacing:0px;writing-mode:lr-tb;text-anchor:start;fill:#000000;fill-opacity:1;stroke:none;font-family:Sans;-inkscape-font-specification:Sans"
         x="-497.42758"
         y="-736.79889"
         id="text4169-62-4"
         sodipodi:linespacing="125%"><tspan
           sodipodi:role="line"
           id="tspan4171-16-7"
           x="-497.42758"
           y="-736.79889">1.1-rc1</tspan></text>
      <text
         xml:space="preserve"
         style="font-size:56.9361763px;font-style:normal;font-variant:normal;font-weight:normal;font-stretch:normal;text-align:start;line-height:125%;letter-spacing:0px;word-spacing:0px;writing-mode:lr-tb;text-anchor:start;fill:#000000;fill-opacity:1;stroke:none;font-family:Sans;-inkscape-font-specification:Sans"
         x="-903.09778"
         y="-981.1499"
         id="text4169-62-3"
         sodipodi:linespacing="125%"><tspan
           sodipodi:role="line"
           id="tspan4171-16-8"
           x="-903.09778"
           y="-981.1499">1.1.1</tspan></text>
      <text
         xml:space="preserve"
         style="font-size:85.40426636px;font-style:normal;font-weight:normal;line-height:125%;letter-spacing:0px;word-spacing:0px;fill:#000000;fill-opacity:1;stroke:none;font-family:Sans"
         x="-729.73157"
         y="-835.81165"
         id="text4169-06-3"
         sodipodi:linespacing="125%"><tspan
           sodipodi:role="line"
           id="tspan4171-4-3"
           x="-729.73157"
           y="-835.81165">1.1.0</tspan></text>
      <text
         xml:space="preserve"
         style="font-size:85.40426636px;font-style:normal;font-variant:normal;font-weight:bold;font-stretch:normal;text-align:start;line-height:125%;letter-spacing:0px;word-spacing:0px;writing-mode:lr-tb;text-anchor:start;fill:#000000;fill-opacity:1;stroke:none;font-family:Sans;-inkscape-font-specification:Sans Bold"
         x="394.75787"
         y="321.89062"
         id="text4780"
         sodipodi:linespacing="125%"><tspan
           sodipodi:role="line"
           id="tspan4782"
           x="394.75787"
           y="321.89062">A</tspan></text>
      <text
         xml:space="preserve"
         style="font-size:85.40426636px;font-style:normal;font-variant:normal;font-weight:bold;font-stretch:normal;text-align:start;line-height:125%;letter-spacing:0px;word-spacing:0px;writing-mode:lr-tb;text-anchor:start;fill:#000000;fill-opacity:1;stroke:none;font-family:Sans;-inkscape-font-specification:Sans Bold"
         x="394.75787"
         y="56.188469"
         id="text4780-3"
         sodipodi:linespacing="125%"><tspan
           sodipodi:role="line"
           id="tspan4782-0"
           x="394.75787"
           y="56.188469">B</tspan></text>
      <text
         xml:space="preserve"
         style="font-size:18px;font-style:normal;font-weight:normal;line-height:125%;letter-spacing:0px;word-spacing:0px;fill:#000000;fill-opacity:1;stroke:none;font-family:Sans"
         x="59.396969"
         y="659.21082"
         id="text4805"
         sodipodi:linespacing="125%"
         transform="matrix(4.7446813,0,0,4.7446813,-1189.9657,-3247.8282)"><tspan
           sodipodi:role="line"
           id="tspan4807"
           x="59.396969"
           y="659.21082" /></text>
      <text
         xml:space="preserve"
         style="font-size:85.40426636px;font-style:normal;font-variant:normal;font-weight:bold;font-stretch:normal;text-align:start;line-height:125%;letter-spacing:0px;word-spacing:0px;writing-mode:lr-tb;text-anchor:start;fill:#000000;fill-opacity:1;stroke:none;font-family:Sans;-inkscape-font-specification:Sans Bold"
         x="-460.85443"
         y="-484.7052"
         id="text4780-37"
         sodipodi:linespacing="125%"
         transform="scale(-1,1)"><tspan
           sodipodi:role="line"
           id="tspan4782-7"
           x="-460.85443"
           y="-484.7052">A</tspan></text>
      <text
         xml:space="preserve"
         style="font-size:85.40426636px;font-style:normal;font-variant:normal;font-weight:bold;font-stretch:normal;text-align:start;line-height:125%;letter-spacing:0px;word-spacing:0px;writing-mode:lr-tb;text-anchor:start;fill:#000000;fill-opacity:1;stroke:none;font-family:Sans;-inkscape-font-specification:Sans Bold"
         x="394.75787"
         y="-721.93927"
         id="text4780-3-9"
         sodipodi:linespacing="125%"><tspan
           sodipodi:role="line"
           id="tspan4782-0-9"
           x="394.75787"
           y="-721.93927">B</tspan></text>
      <text
         xml:space="preserve"
         style="font-size:18px;font-style:normal;font-weight:normal;line-height:125%;letter-spacing:0px;word-spacing:0px;fill:#000000;fill-opacity:1;stroke:none;font-family:Sans"
         x="441.23462"
         y="329.69904"
         id="text4875"
         sodipodi:linespacing="125%"
         transform="matrix(4.7446813,0,0,4.7446813,-1189.9657,-3247.8282)"><tspan
           sodipodi:role="line"
           id="tspan4877"
           x="441.23462"
           y="329.69904" /></text>
      <text
         xml:space="preserve"
         style="font-size:85.40426636px;font-style:italic;font-weight:normal;line-height:125%;letter-spacing:0px;word-spacing:0px;fill:#000000;fill-opacity:1;stroke:none;font-family:Sans;-inkscape-font-specification:Sans Italic"
         x="1411.6411"
         y="292.99103"
         id="text4898"
         sodipodi:linespacing="125%"
         transform="matrix(0,-1,1,0,0,0)"><tspan
           sodipodi:role="line"
           id="tspan4900"
           x="1411.6411"
           y="292.99103">Trunk</tspan></text>
      <text
         xml:space="preserve"
         style="font-size:85.40426636px;font-style:italic;font-weight:normal;line-height:125%;letter-spacing:0px;word-spacing:0px;fill:#000000;fill-opacity:1;stroke:none;font-family:Sans;-inkscape-font-specification:Sans Italic"
         x="1782.9191"
         y="-892.84399"
         id="text4898-2"
         sodipodi:linespacing="125%"
         transform="matrix(0.74749411,-0.66426843,0.66426843,0.74749411,0,0)"
         inkscape:transform-center-x="28.965254"
         inkscape:transform-center-y="-72.293294"><tspan
           sodipodi:role="line"
           id="tspan4900-6"
           x="1782.9191"
           y="-892.84399">Future series</tspan></text>
      <text
         xml:space="preserve"
         style="font-size:85.40426636px;font-style:italic;font-weight:normal;line-height:125%;letter-spacing:0px;word-spacing:0px;fill:#000000;fill-opacity:1;stroke:none;font-family:Sans;-inkscape-font-specification:Sans Italic"
         x="814.15698"
         y="-46.689964"
         id="text4898-6"
         sodipodi:linespacing="125%"
         transform="matrix(0.94860721,-0.31645595,0.31645595,0.94860721,0,0)"><tspan
           sodipodi:role="line"
           id="tspan4900-3"
           x="814.15698"
           y="-46.689964">Stable series/branch</tspan></text>
      <text
         xml:space="preserve"
         style="font-size:85.40426636px;font-style:italic;font-weight:normal;line-height:125%;letter-spacing:0px;word-spacing:0px;fill:#000000;fill-opacity:1;stroke:none;font-family:Sans;-inkscape-font-specification:Sans Italic"
         x="-1078.6716"
         y="-1000.0249"
         id="text4898-6-7"
         sodipodi:linespacing="125%"
         transform="matrix(0.93359989,0.35831725,-0.35831725,0.93359989,0,0)"><tspan
           sodipodi:role="line"
           id="tspan4900-3-2"
           x="-1078.6716"
           y="-1000.0249">Stable series/branch</tspan></text>
      <text
         xml:space="preserve"
         style="font-size:85.40426636px;font-style:normal;font-variant:normal;font-weight:bold;font-stretch:normal;text-align:start;line-height:125%;letter-spacing:0px;word-spacing:0px;writing-mode:lr-tb;text-anchor:start;fill:#000000;fill-opacity:1;stroke:none;font-family:Sans;-inkscape-font-specification:Sans Bold"
         x="-707.90686"
         y="-1101.5138"
         id="text4780-37-8"
         sodipodi:linespacing="125%"
         transform="scale(-1,1)"><tspan
           sodipodi:role="line"
           id="tspan4782-7-8"
           x="-707.90686"
           y="-1101.5138" /></text>
      <text
         xml:space="preserve"
         style="font-size:85.40426636px;font-style:normal;font-variant:normal;font-weight:bold;font-stretch:normal;text-align:start;line-height:125%;letter-spacing:0px;word-spacing:0px;writing-mode:lr-tb;text-anchor:start;fill:#000000;fill-opacity:1;stroke:none;font-family:Sans;-inkscape-font-specification:Sans Bold"
         x="660.46008"
         y="-1101.5138"
         id="text4780-3-9-7"
         sodipodi:linespacing="125%"><tspan
           sodipodi:role="line"
           id="tspan4782-0-9-3"
           x="660.46008"
           y="-1101.5138">B</tspan></text>
      <text
         xml:space="preserve"
         style="font-size:85.40426636px;font-style:normal;font-variant:normal;font-weight:bold;font-stretch:normal;text-align:start;line-height:125%;letter-spacing:0px;word-spacing:0px;writing-mode:lr-tb;text-anchor:start;fill:#000000;fill-opacity:1;stroke:none;font-family:Sans;-inkscape-font-specification:Sans Bold"
         x="660.46008"
         y="-1243.8542"
         id="text4780-3-9-7-3"
         sodipodi:linespacing="125%"><tspan
           sodipodi:role="line"
           id="tspan4782-0-9-3-4"
           x="660.46008"
           y="-1243.8542">A</tspan></text>
      <text
         xml:space="preserve"
         style="font-size:85.40426636px;font-style:normal;font-variant:normal;font-weight:bold;font-stretch:normal;text-align:start;line-height:125%;letter-spacing:0px;word-spacing:0px;writing-mode:lr-tb;text-anchor:start;fill:#000000;fill-opacity:1;stroke:none;font-family:Sans;-inkscape-font-specification:Sans Bold"
         x="660.46008"
         y="-959.17334"
         id="text4780-3-9-7-30"
         sodipodi:linespacing="125%"><tspan
           sodipodi:role="line"
           id="tspan4782-0-9-3-44"
           x="660.46008"
           y="-959.17334">C</tspan></text>
      <text
         xml:space="preserve"
         style="font-size:85.40426636px;font-style:italic;font-weight:normal;line-height:125%;letter-spacing:0px;word-spacing:0px;fill:#000000;fill-opacity:1;stroke:none;font-family:Sans;-inkscape-font-specification:Sans Italic"
         x="802.80054"
         y="-1243.8542"
         id="text4898-1"
         sodipodi:linespacing="125%"><tspan
           sodipodi:role="line"
           id="tspan4900-2"
           x="802.80054"
           y="-1243.8542">Decision to branch</tspan></text>
      <text
         xml:space="preserve"
         style="font-size:85.40426636px;font-style:italic;font-weight:normal;line-height:125%;letter-spacing:0px;word-spacing:0px;fill:#000000;fill-opacity:1;stroke:none;font-family:Sans;-inkscape-font-specification:Sans Italic"
         x="802.80054"
         y="-1101.5138"
         id="text4898-1-9"
         sodipodi:linespacing="125%"><tspan
           sodipodi:role="line"
           id="tspan4900-2-6"
           x="802.80054"
           y="-1101.5138">Creation of stable branch</tspan></text>
      <text
         xml:space="preserve"
         style="font-size:85.40426636px;font-style:italic;font-weight:normal;line-height:125%;letter-spacing:0px;word-spacing:0px;fill:#000000;fill-opacity:1;stroke:none;font-family:Sans;-inkscape-font-specification:Sans Italic"
         x="802.80054"
         y="-959.17334"
         id="text4898-1-2"
         sodipodi:linespacing="125%"><tspan
           sodipodi:role="line"
           id="tspan4900-2-7"
           x="802.80054"
           y="-959.17334">Release of stable version</tspan></text>
      <text
         xml:space="preserve"
         style="font-size:56.9361763px;font-style:normal;font-variant:normal;font-weight:bold;font-stretch:normal;text-align:start;line-height:125%;letter-spacing:0px;word-spacing:0px;writing-mode:lr-tb;text-anchor:start;fill:#000000;fill-opacity:1;stroke:none;font-family:Sans;-inkscape-font-specification:Sans Bold"
         x="1269.7446"
         y="-365.27408"
         id="text4780-3-9-7-30-1"
         sodipodi:linespacing="125%"><tspan
           sodipodi:role="line"
           id="tspan4782-0-9-3-44-5"
           x="1269.7446"
           y="-365.27408">C</tspan></text>
      <text
         xml:space="preserve"
         style="font-size:47.44681343px;font-style:normal;font-variant:normal;font-weight:bold;font-stretch:normal;text-align:start;line-height:125%;letter-spacing:0px;word-spacing:0px;writing-mode:lr;text-anchor:start;fill:#000000;fill-opacity:1;stroke:none;font-family:Sans;-inkscape-font-specification:Sans Bold"
         x="-438.80573"
         y="-1139.4062"
         id="text4780-3-9-7-30-1-9"
         sodipodi:linespacing="125%"><tspan
           sodipodi:role="line"
           id="tspan4782-0-9-3-44-5-4"
           x="-438.80573"
           y="-1139.4062">C</tspan></text>
      <text
         xml:space="preserve"
         style="font-size:18px;font-style:italic;font-weight:normal;line-height:125%;letter-spacing:0px;word-spacing:0px;fill:#000000;fill-opacity:1;stroke:none;font-family:Sans;-inkscape-font-specification:Sans Italic"
         x="333.0473"
         y="647.89709"
         id="text5160"
         sodipodi:linespacing="125%"
         transform="matrix(4.7446813,0,0,4.7446813,-1189.9657,-3247.8282)"><tspan
           sodipodi:role="line"
           id="tspan5162"
           x="333.0473"
           y="647.89709" /></text>
      <text
         xml:space="preserve"
         style="font-size:85.40426636px;font-style:normal;font-variant:normal;font-weight:bold;font-stretch:normal;text-align:start;line-height:125%;letter-spacing:0px;word-spacing:0px;writing-mode:lr-tb;text-anchor:start;fill:#000000;fill-opacity:1;stroke:none;font-family:Sans;-inkscape-font-specification:Sans Bold"
         x="394.75787"
         y="-162.06686"
         id="text4780-3-9-6"
         sodipodi:linespacing="125%"><tspan
           sodipodi:role="line"
           id="tspan4782-0-9-5"
           x="394.75787"
           y="-162.06686">D</tspan></text>
      <text
         xml:space="preserve"
         style="font-size:85.40426636px;font-style:normal;font-variant:normal;font-weight:bold;font-stretch:normal;text-align:start;line-height:125%;letter-spacing:0px;word-spacing:0px;writing-mode:lr-tb;text-anchor:start;fill:#000000;fill-opacity:1;stroke:none;font-family:Sans;-inkscape-font-specification:Sans Bold"
         x="660.46008"
         y="-816.83289"
         id="text4780-3-9-7-30-13"
         sodipodi:linespacing="125%"><tspan
           sodipodi:role="line"
           id="tspan4782-0-9-3-44-53"
           x="660.46008"
           y="-816.83289">D</tspan></text>
      <text
         xml:space="preserve"
         style="font-size:85.40426636px;font-style:italic;font-weight:normal;line-height:125%;letter-spacing:0px;word-spacing:0px;fill:#000000;fill-opacity:1;stroke:none;font-family:Sans;-inkscape-font-specification:Sans Italic"
         x="802.80054"
         y="-816.83289"
         id="text4898-1-2-6"
         sodipodi:linespacing="125%"><tspan
           sodipodi:role="line"
           id="tspan4900-2-7-4"
           x="802.80054"
           y="-816.83289">Release of snapshot</tspan></text>
      <text
         xml:space="preserve"
         style="font-size:18px;font-style:italic;font-weight:normal;line-height:125%;letter-spacing:0px;word-spacing:0px;fill:#000000;fill-opacity:1;stroke:none;font-family:Sans;-inkscape-font-specification:Sans Italic"
         x="159.80614"
         y="594.86407"
         id="text5260"
         sodipodi:linespacing="125%"
         transform="matrix(4.7446813,0,0,4.7446813,-1189.9657,-3247.8282)"><tspan
           sodipodi:role="line"
           id="tspan5262"
           x="159.80614"
           y="594.86407" /></text>
    </g>
  </g>
</svg>
